gavrasm Gerd's AVR assembler version 3.9 (C)2018 by DG4FAC
----------------------------------------------------------
Source file: instr.asm
Hex file:    instr.hex
Eeprom file: instr.eep
Compiled:    29.07.2018, 08:06:17
Pass:        1
Error ==>         ld r,X
[instr.asm,136] 035: Illegal instruction (LD/ST) for device type (AT90S1200)!
Error ==> 	ld r,X+
[instr.asm,137] 035: Illegal instruction (LD/ST) for device type (AT90S1200)!
Error ==> 	ld r,-X
[instr.asm,138] 035: Illegal instruction (LD/ST) for device type (AT90S1200)!
Error ==> 	ld r,Y
[instr.asm,139] 035: Illegal instruction (LD/ST) for device type (AT90S1200)!
Error ==> 	ld r,Y+
[instr.asm,140] 035: Illegal instruction (LD/ST) for device type (AT90S1200)!
Error ==> 	ld r,-Y
[instr.asm,141] 035: Illegal instruction (LD/ST) for device type (AT90S1200)!
Error ==> 	ld r,Z+
[instr.asm,143] 035: Illegal instruction (LD/ST) for device type (AT90S1200)!
Error ==> 	ld r,-Z
[instr.asm,144] 035: Illegal instruction (LD/ST) for device type (AT90S1200)!
Error ==> 	st X,r
[instr.asm,200] 035: Illegal instruction (LD/ST) for device type (AT90S1200)!
Error ==> 	st X+,r
[instr.asm,201] 035: Illegal instruction (LD/ST) for device type (AT90S1200)!
Error ==> 	st -X,r
[instr.asm,202] 035: Illegal instruction (LD/ST) for device type (AT90S1200)!
Error ==> 	st Y,r
[instr.asm,203] 035: Illegal instruction (LD/ST) for device type (AT90S1200)!
Error ==> 	st Y+,r
[instr.asm,204] 035: Illegal instruction (LD/ST) for device type (AT90S1200)!
Error ==> 	st -Y,r
[instr.asm,205] 035: Illegal instruction (LD/ST) for device type (AT90S1200)!
Error ==> 	st Z+,r
[instr.asm,207] 035: Illegal instruction (LD/ST) for device type (AT90S1200)!
Error ==> 	st -Z,r
[instr.asm,208] 035: Illegal instruction (LD/ST) for device type (AT90S1200)!
Compilation aborted, 16 errors!
